{
    "applicationName" : "TrackCSU",
    "applicationId": "0yr43l0x4x4nkxtcki2o530rw435b4tr8j786w1f0j8ev6in",
    "applicationKey": "cui0trpe57l3lchldhsb7cwh9wqo9vx4m1pqhg7x6arxxjsj",
    "global": {
        "avVersion": "0.3.1"
    }
}
